…
``` r
nyc_subway %>% 
  select(station_name, line) %>% 
  distinct
```

    ## # A tibble: 465 × 2
    ##    station_name             line    
    ##    <chr>                    <chr>   
    ##  1 25th St                  4 Avenue
    ##  2 36th St                  4 Avenue
    ##  3 45th St                  4 Avenue
    ##  4 53rd St                  4 Avenue
    ##  5 59th St                  4 Avenue
    ##  6 77th St                  4 Avenue
    ##  7 86th St                  4 Avenue
    ##  8 95th St                  4 Avenue
    ##  9 9th St                   4 Avenue
    ## 10 Atlantic Av-Barclays Ctr 4 Avenue
    ## # … with 455 more rows

There are 465 distinct stations.

``` r
nyc_subway %>% 
  filter(ada == TRUE) %>% 
  select(station_name, line) %>% 
  distinct
```

    ## # A tibble: 84 × 2
    ##    station_name                   line           
    ##    <chr>                          <chr>          
    ##  1 Atlantic Av-Barclays Ctr       4 Avenue       
    ##  2 DeKalb Av                      4 Avenue       
    ##  3 Pacific St                     4 Avenue       
    ##  4 Grand Central                  42nd St Shuttle
    ##  5 34th St                        6 Avenue       
    ##  6 47-50th Sts Rockefeller Center 6 Avenue       
    ##  7 Church Av                      6 Avenue       
    ##  8 21st St                        63rd Street    
    ##  9 Lexington Av                   63rd Street    
    ## 10 Roosevelt Island               63rd Street    
    ## # … with 74 more rows
…
The proportion of station entrances / exits without vending that allow
entrance are 0.377.

``` r
nyc_subway %>% 
  pivot_longer(
    route1:route11, 
    names_to = "route_num", 
    values_to = "route") %>% 
    filter(route == "A") %>% 
  select(station_name, line) %>% 
  distinct
```

    ## # A tibble: 60 × 2
    ##    station_name                  line           
    ##    <chr>                         <chr>          
    ##  1 Times Square                  42nd St Shuttle
    ##  2 125th St                      8 Avenue       
    ##  3 145th St                      8 Avenue       
    ##  4 14th St                       8 Avenue       
    ##  5 168th St - Washington Heights 8 Avenue       
    ##  6 175th St                      8 Avenue       
    ##  7 181st St                      8 Avenue       
    ##  8 190th St                      8 Avenue       
    ##  9 34th St                       8 Avenue       
    ## 10 42nd St                       8 Avenue       
    ## # … with 50 more rows
…
pro_trash_wheel = read_excel("hw2_data/Trash Wheel Collection Data.xlsx", 
                         sheet = "Professor Trash Wheel") %>% 
  janitor::clean_names() %>% 
  filter(!is.na(dumpster)) %>% 
  mutate(wheel_num = 1)

all_trash = bind_rows(pro_trash_wheel, trash_wheel)

all_trash %>% 
  arrange(year) 
```

    ## # A tibble: 641 × 16
    ##    dumpster month  year date                weight_tons volume…¹ plast…² polys…³
    ##       <dbl> <chr> <dbl> <dttm>                    <dbl>    <dbl>   <dbl>   <dbl>
    ##  1        1 May    2014 2014-05-16 00:00:00        4.31       18    1450    1820
    ##  2        2 May    2014 2014-05-16 00:00:00        2.74       13    1120    1030
    ##  3        3 May    2014 2014-05-16 00:00:00        3.45       15    2450    3100
    ##  4        4 May    2014 2014-05-17 00:00:00        3.1        15    2380    2730
    ##  5        5 May    2014 2014-05-17 00:00:00        4.06       18     980     870
    ##  6        6 May    2014 2014-05-20 00:00:00        2.71       13    1430    2140
    ##  7        7 May    2014 2014-05-21 00:00:00        1.91        8     910    1090
    ##  8        8 May    2014 2014-05-28 00:00:00        3.7        16    3580    4310
    ##  9        9 June   2014 2014-06-05 00:00:00        2.52       14    2400    2790
    ## 10       10 June   2014 2014-06-11 00:00:00        3.76       18    1340    1730
    ## # … with 631 more rows, 8 more variables: cigarette_butts <dbl>,
    ## #   glass_bottles <dbl>, grocery_bags <dbl>, chip_bags <dbl>,
    ## #   homes_powered <dbl>, wheel_num <dbl>, sports_balls <dbl>, num <dbl>, and
    ## #   abbreviated variable names ¹​volume_cubic_yards, ²​plastic_bottles,
    ## #   ³​polystyrene

``` r
all_trash %>% 
  arrange(desc(year))
```

    ## # A tibble: 641 × 16
    ##    dumpster month     year date                weight_…¹ volum…² plast…³ polys…⁴
    ##       <dbl> <chr>    <dbl> <dttm>                  <dbl>   <dbl>   <dbl>   <dbl>
    ##  1       86 January   2022 2022-01-05 00:00:00      1.32      15    2700     300
    ##  2       87 February  2022 2022-02-21 00:00:00      0.93      10    3000     420
    ##  3       88 March     2022 2022-03-25 00:00:00      2.01      15    4100     380
    ##  4       89 April     2022 2022-04-07 00:00:00      2.61      15    3900     280
    ##  5       90 May       2022 2022-05-05 00:00:00      3.46      15    4400     500
    ##  6       91 June      2022 2022-06-10 00:00:00      2.76      15    4900     420
    ##  7       92 June      2022 2022-06-21 00:00:00      2.41      10    3600     300
    ##  8       93 July      2022 2022-07-05 00:00:00      2.43      15    4500     400
    ##  9       94 July      2022 2022-07-18 00:00:00      2.98      15    5000     320
    ## 10      511 January   2022 2022-01-05 00:00:00      2.2       15    2700     220
    ## # … with 631 more rows, 8 more variables: cigarette_butts <dbl>,
    ## #   glass_bottles <dbl>, grocery_bags <dbl>, chip_bags <dbl>,
    ## #   homes_powered <dbl>, wheel_num <dbl>, sports_balls <dbl>, num <dbl>, and
    ## #   abbreviated variable names ¹​weight_tons, ²​volume_cubic_yards,
    ## #   ³​plastic_bottles, ⁴​polystyrene
…
